{
    "cordova-plugin-whitelist": {
        "source": {
            "type": "registry",
            "id": "cordova-plugin-whitelist@1"
        },
        "is_top_level": true,
        "variables": {}
    },
    "cordova-plugin-datepicker": {
        "source": {
            "type": "registry",
            "id": "cordova-plugin-datepicker"
        },
        "is_top_level": true,
        "variables": {}
    },
    "cordova-plugin-file": {
        "source": {
            "type": "registry",
            "id": "cordova-plugin-file"
        },
        "is_top_level": true,
        "variables": {}
    },
    "cordova-plugin-file-transfer": {
        "source": {
            "type": "registry",
            "id": "cordova-plugin-file-transfer"
        },
        "is_top_level": true,
        "variables": {}
    },
    "cordova-plugin-camera": {
        "source": {
            "type": "registry",
            "id": "cordova-plugin-camera"
        },
        "is_top_level": true,
        "variables": {}
    },
    "cordova-plugin-facebook4": {
        "source": {
            "type": "registry",
            "id": "cordova-plugin-facebook4@~1.9.1"
        },
        "is_top_level": true,
        "variables": {
            "APP_ID": "307832573001728",
            "APP_NAME": "everest"
        }
    },
    "cordova-plugin-compat": {
        "source": {
            "type": "registry",
            "id": "cordova-plugin-compat"
        },
        "is_top_level": true,
        "variables": {}
    },
    "cordova.plugins.diagnostic": {
        "source": {
            "type": "registry",
            "id": "cordova.plugins.diagnostic"
        },
        "is_top_level": true,
        "variables": {}
    },
    "cordova-plugin-fastrde-checkgps": {
        "source": {
            "type": "registry",
            "id": "cordova-plugin-fastrde-checkgps"
        },
        "is_top_level": true,
        "variables": {}
    },
    "cordova-plugin-geolocation": {
        "source": {
            "type": "registry",
            "id": "cordova-plugin-geolocation@1.0.1"
        },
        "is_top_level": false,
        "variables": {}
    },
    "cordova-plugin-mauron85-background-geolocation": {
        "source": {
            "type": "registry",
            "id": "cordova-plugin-mauron85-background-geolocation"
        },
        "is_top_level": true,
        "variables": {}
    },
    "onesignal-cordova-plugin": {
        "source": {
            "type": "registry",
            "id": "onesignal-cordova-plugin"
        },
        "is_top_level": true,
        "variables": {}
    }
}